{
  "defaultSeverity": "error",
  "extends": [
      "tslint:recommended"
  ],
  "jsRules": {},
  "rules": {
    "quotemark": false,
    "no-unused-expression": false,
    "object-literal-sort-keys": false,
    "ordered-imports": false,
    "ban-types": false,
    "interface-name": false,
    "no-var-requires": false,
    "member-access": false,
    "no-empty-interface": false,
    "no-namespace": false,
    "no-console": false,
    "no-irregular-whitespace": true
  },
  "rulesDirectory": []
}
